{
  "collectionName": "components_level_use_level_uses",
  "info": {
    "name": "Level Use",
    "icon": "archway"
  },
  "options": {},
  "attributes": {
    "level": {
      "type": "integer",
      "required": true
    },
    "product_brand": {
      "model": "brand"
    }
  }
}
