{
  "collectionName": "advantages",
  "info": {
    "name": "Advantages",
    "icon": "broadcast-tower"
  },
  "options": {},
  "attributes": {
    "advantage": {
      "type": "string",
      "required": true
    }
  }
}
