{
  "kind": "collectionType",
  "collectionName": "transactions",
  "info": {
    "name": "Transactions"
  },
  "options": {
    "increments": true,
    "timestamps": true
  },
  "attributes": {
    "total_price": {
      "type": "decimal",
      "required": true
    },
    "user": {
      "plugin": "users-permissions",
      "model": "user"
    },
    "products": {
      "type": "component",
      "repeatable": true,
      "component": "variants.products-transactions",
      "required": true
    }
  }
}
