{
  "kind": "collectionType",
  "collectionName": "menus",
  "info": {
    "name": "Menu"
  },
  "options": {
    "increments": true,
    "timestamps": true
  },
  "attributes": {
    "nombre": {
      "type": "string",
      "required": true,
      "unique": true
    },
    "slug": {
      "type": "string"
    },
    "tipo": {
      "type": "enumeration",
      "enum": [
        "LISTA",
        "MEGA_MENU"
      ],
      "required": true,
      "default": "Lista"
    },
    "orden": {
      "type": "integer",
      "required": true,
      "unique": true
    },
    "submenus": {
      "type": "component",
      "repeatable": true,
      "component": "submenu.submenu"
    }
  }
}
