{
  "kind": "collectionType",
  "collectionName": "banners",
  "info": {
    "name": "banner"
  },
  "options": {
    "increments": true,
    "timestamps": true
  },
  "attributes": {
    "image_full": {
      "model": "file",
      "via": "related",
      "allowedTypes": [
        "images",
        "files",
        "videos"
      ],
      "plugin": "upload",
      "required": false
    },
    "link_purchase": {
      "type": "component",
      "repeatable": false,
      "component": "link-purchase.link-purchase"
    },
    "image_mobile": {
      "model": "file",
      "via": "related",
      "allowedTypes": [
        "images"
      ],
      "plugin": "upload",
      "required": true
    },
    "title": {
      "type": "string",
      "required": true
    },
    "product_brand": {
      "via": "banners",
      "model": "brand"
    },
    "company_information": {
      "via": "banners",
      "model": "company-information"
    }
  }
}
